6

C	-0.0467450	0.6643780	0.0000000
O	-0.0467450	-0.7568600	0.0000000
H	-1.0893300	0.9780330	0.0000000
H	0.4397810	1.0724250	0.8913380
H	0.4397810	1.0724250	-0.8913380
H	0.8642040	-1.0542770	0.0000000
